%!PS-Adobe-3.0 EPSF-3.0
%%Title: prediction.eps
%%Creator: matplotlib version 3.0.2, http://matplotlib.org/
%%CreationDate: Mon Jun 24 15:17:33 2019
%%Orientation: portrait
%%BoundingBox: 18 108 594 684
%%EndComments
%%BeginProlog
/mpldict 8 dict def
mpldict begin
/m { moveto } bind def
/l { lineto } bind def
/r { rlineto } bind def
/c { curveto } bind def
/cl { closepath } bind def
/box {
m
1 index 0 r
0 exch r
neg 0 r
cl
} bind def
/clipbox {
box
clip
newpath
} bind def
%!PS-Adobe-3.0 Resource-Font
%%Title: DejaVu Sans
%%Copyright: Copyright (c) 2003 by Bitstream, Inc. All Rights Reserved. Copyright (c) 2006 by Tavmjong Bah. All Rights Reserved. DejaVu changes are in public domain 
%%Creator: Converted from TrueType to type 3 by PPR
25 dict begin
/_d{bind def}bind def
/_m{moveto}_d
/_l{lineto}_d
/_cl{closepath eofill}_d
/_c{curveto}_d
/_sc{7 -1 roll{setcachedevice}{pop pop pop pop pop pop}ifelse}_d
/_e{exec}_d
/FontName /DejaVuSans def
/PaintType 0 def
/FontMatrix[.001 0 0 .001 0 0]def
/FontBBox[-1021 -463 1793 1232]def
/FontType 3 def
/Encoding [ /space /period /zero /one /two /four /six /eight /P /S /T /c /d /e /h /i /l /n /o /r /t /u /x /y ] def
/FontInfo 10 dict dup begin
/FamilyName (DejaVu Sans) def
/FullName (DejaVu Sans) def
/Notice (Copyright (c) 2003 by Bitstream, Inc. All Rights Reserved. Copyright (c) 2006 by Tavmjong Bah. All Rights Reserved. DejaVu changes are in public domain ) def
/Weight (Book) def
/Version (Version 2.35) def
/ItalicAngle 0.0 def
/isFixedPitch false def
/UnderlinePosition -130 def
/UnderlineThickness 90 def
end readonly def
/CharStrings 25 dict dup begin
/.notdef 0 def
/space{318 0 0 0 0 0 _sc
}_d
/period{318 0 107 0 210 124 _sc
107 124 _m
210 124 _l
210 0 _l
107 0 _l
107 124 _l
_cl}_d
/zero{636 0 66 -13 570 742 _sc
318 664 _m
267 664 229 639 203 589 _c
177 539 165 464 165 364 _c
165 264 177 189 203 139 _c
229 89 267 64 318 64 _c
369 64 407 89 433 139 _c
458 189 471 264 471 364 _c
471 464 458 539 433 589 _c
407 639 369 664 318 664 _c
318 742 _m
399 742 461 709 505 645 _c
548 580 570 486 570 364 _c
570 241 548 147 505 83 _c
461 19 399 -13 318 -13 _c
236 -13 173 19 130 83 _c
87 147 66 241 66 364 _c
66 486 87 580 130 645 _c
173 709 236 742 318 742 _c
_cl}_d
/one{636 0 110 0 544 729 _sc
124 83 _m
285 83 _l
285 639 _l
110 604 _l
110 694 _l
284 729 _l
383 729 _l
383 83 _l
544 83 _l
544 0 _l
124 0 _l
124 83 _l
_cl}_d
/two{{636 0 73 0 536 742 _sc
192 83 _m
536 83 _l
536 0 _l
73 0 _l
73 83 _l
110 121 161 173 226 239 _c
290 304 331 346 348 365 _c
380 400 402 430 414 455 _c
426 479 433 504 433 528 _c
433 566 419 598 392 622 _c
365 646 330 659 286 659 _c
255 659 222 653 188 643 _c
154 632 117 616 78 594 _c
78 694 _l
118 710 155 722 189 730 _c
223 738 255 742 284 742 _c
}_e{359 742 419 723 464 685 _c
509 647 532 597 532 534 _c
532 504 526 475 515 449 _c
504 422 484 390 454 354 _c
446 344 420 317 376 272 _c
332 227 271 164 192 83 _c
_cl}_e}_d
/four{636 0 49 0 580 729 _sc
378 643 _m
129 254 _l
378 254 _l
378 643 _l
352 729 _m
476 729 _l
476 254 _l
580 254 _l
580 172 _l
476 172 _l
476 0 _l
378 0 _l
378 172 _l
49 172 _l
49 267 _l
352 729 _l
_cl}_d
/six{{636 0 70 -13 573 742 _sc
330 404 _m
286 404 251 388 225 358 _c
199 328 186 286 186 234 _c
186 181 199 139 225 109 _c
251 79 286 64 330 64 _c
374 64 409 79 435 109 _c
461 139 474 181 474 234 _c
474 286 461 328 435 358 _c
409 388 374 404 330 404 _c
526 713 _m
526 623 _l
501 635 476 644 451 650 _c
425 656 400 659 376 659 _c
310 659 260 637 226 593 _c
}_e{192 549 172 482 168 394 _c
187 422 211 444 240 459 _c
269 474 301 482 336 482 _c
409 482 467 459 509 415 _c
551 371 573 310 573 234 _c
573 159 550 99 506 54 _c
462 9 403 -13 330 -13 _c
246 -13 181 19 137 83 _c
92 147 70 241 70 364 _c
70 479 97 571 152 639 _c
206 707 280 742 372 742 _c
396 742 421 739 447 735 _c
472 730 498 723 526 713 _c
_cl}_e}_d
/eight{{636 0 68 -13 568 742 _sc
318 346 _m
271 346 234 333 207 308 _c
180 283 167 249 167 205 _c
167 161 180 126 207 101 _c
234 76 271 64 318 64 _c
364 64 401 76 428 102 _c
455 127 469 161 469 205 _c
469 249 455 283 429 308 _c
402 333 365 346 318 346 _c
219 388 _m
177 398 144 418 120 447 _c
96 476 85 511 85 553 _c
85 611 105 657 147 691 _c
188 725 245 742 318 742 _c
}_e{390 742 447 725 489 691 _c
530 657 551 611 551 553 _c
551 511 539 476 515 447 _c
491 418 459 398 417 388 _c
464 377 501 355 528 323 _c
554 291 568 251 568 205 _c
568 134 546 80 503 43 _c
459 5 398 -13 318 -13 _c
237 -13 175 5 132 43 _c
89 80 68 134 68 205 _c
68 251 81 291 108 323 _c
134 355 171 377 219 388 _c
183 544 _m
183 506 194 476 218 455 _c
}_e{242 434 275 424 318 424 _c
360 424 393 434 417 455 _c
441 476 453 506 453 544 _c
453 582 441 611 417 632 _c
393 653 360 664 318 664 _c
275 664 242 653 218 632 _c
194 611 183 582 183 544 _c
_cl}_e}_d
/P{603 0 98 0 569 729 _sc
197 648 _m
197 374 _l
321 374 _l
367 374 402 385 427 409 _c
452 433 465 467 465 511 _c
465 555 452 588 427 612 _c
402 636 367 648 321 648 _c
197 648 _l
98 729 _m
321 729 _l
402 729 464 710 506 673 _c
548 636 569 582 569 511 _c
569 439 548 384 506 348 _c
464 311 402 293 321 293 _c
197 293 _l
197 0 _l
98 0 _l
98 729 _l
_cl}_d
/S{{635 0 66 -13 579 742 _sc
535 705 _m
535 609 _l
497 627 462 640 429 649 _c
395 657 363 662 333 662 _c
279 662 237 651 208 631 _c
179 610 165 580 165 542 _c
165 510 174 485 194 469 _c
213 452 250 439 304 429 _c
364 417 _l
437 403 491 378 526 343 _c
561 307 579 260 579 201 _c
579 130 555 77 508 41 _c
460 5 391 -13 300 -13 _c
265 -13 228 -9 189 -2 _c
}_e{150 5 110 16 69 32 _c
69 134 _l
109 111 148 94 186 83 _c
224 71 262 66 300 66 _c
356 66 399 77 430 99 _c
460 121 476 152 476 194 _c
476 230 465 258 443 278 _c
421 298 385 313 335 323 _c
275 335 _l
201 349 148 372 115 404 _c
82 435 66 478 66 534 _c
66 598 88 649 134 686 _c
179 723 242 742 322 742 _c
356 742 390 739 426 733 _c
461 727 497 717 535 705 _c
}_e{_cl}_e}_d
/T{611 0 -2 0 614 729 _sc
-2 729 _m
614 729 _l
614 646 _l
355 646 _l
355 0 _l
256 0 _l
256 646 _l
-2 646 _l
-2 729 _l
_cl}_d
/c{{550 0 55 -13 488 560 _sc
488 526 _m
488 442 _l
462 456 437 466 411 473 _c
385 480 360 484 334 484 _c
276 484 230 465 198 428 _c
166 391 150 339 150 273 _c
150 206 166 154 198 117 _c
230 80 276 62 334 62 _c
360 62 385 65 411 72 _c
437 79 462 90 488 104 _c
488 21 _l
462 9 436 0 410 -5 _c
383 -10 354 -13 324 -13 _c
242 -13 176 12 128 64 _c
}_e{79 115 55 185 55 273 _c
55 362 79 432 128 483 _c
177 534 244 560 330 560 _c
358 560 385 557 411 551 _c
437 545 463 537 488 526 _c
_cl}_e}_d
/d{{635 0 55 -13 544 760 _sc
454 464 _m
454 760 _l
544 760 _l
544 0 _l
454 0 _l
454 82 _l
435 49 411 25 382 10 _c
353 -5 319 -13 279 -13 _c
213 -13 159 13 117 65 _c
75 117 55 187 55 273 _c
55 359 75 428 117 481 _c
159 533 213 560 279 560 _c
319 560 353 552 382 536 _c
411 520 435 496 454 464 _c
148 273 _m
148 207 161 155 188 117 _c
215 79 253 61 301 61 _c
}_e{348 61 385 79 413 117 _c
440 155 454 207 454 273 _c
454 339 440 390 413 428 _c
385 466 348 485 301 485 _c
253 485 215 466 188 428 _c
161 390 148 339 148 273 _c
_cl}_e}_d
/e{{615 0 55 -13 562 560 _sc
562 296 _m
562 252 _l
149 252 _l
153 190 171 142 205 110 _c
238 78 284 62 344 62 _c
378 62 412 66 444 74 _c
476 82 509 95 541 113 _c
541 28 _l
509 14 476 3 442 -3 _c
408 -9 373 -13 339 -13 _c
251 -13 182 12 131 62 _c
80 112 55 181 55 268 _c
55 357 79 428 127 481 _c
175 533 241 560 323 560 _c
397 560 455 536 498 489 _c
}_e{540 441 562 377 562 296 _c
472 322 _m
471 371 457 410 431 440 _c
404 469 368 484 324 484 _c
274 484 234 469 204 441 _c
174 413 156 373 152 322 _c
472 322 _l
_cl}_e}_d
/h{634 0 91 0 549 760 _sc
549 330 _m
549 0 _l
459 0 _l
459 327 _l
459 379 448 417 428 443 _c
408 469 378 482 338 482 _c
289 482 251 466 223 435 _c
195 404 181 362 181 309 _c
181 0 _l
91 0 _l
91 760 _l
181 760 _l
181 462 _l
202 494 227 519 257 535 _c
286 551 320 560 358 560 _c
420 560 468 540 500 501 _c
532 462 549 405 549 330 _c
_cl}_d
/i{278 0 94 0 184 760 _sc
94 547 _m
184 547 _l
184 0 _l
94 0 _l
94 547 _l
94 760 _m
184 760 _l
184 646 _l
94 646 _l
94 760 _l
_cl}_d
/l{278 0 94 0 184 760 _sc
94 760 _m
184 760 _l
184 0 _l
94 0 _l
94 760 _l
_cl}_d
/n{634 0 91 0 549 560 _sc
549 330 _m
549 0 _l
459 0 _l
459 327 _l
459 379 448 417 428 443 _c
408 469 378 482 338 482 _c
289 482 251 466 223 435 _c
195 404 181 362 181 309 _c
181 0 _l
91 0 _l
91 547 _l
181 547 _l
181 462 _l
202 494 227 519 257 535 _c
286 551 320 560 358 560 _c
420 560 468 540 500 501 _c
532 462 549 405 549 330 _c
_cl}_d
/o{612 0 55 -13 557 560 _sc
306 484 _m
258 484 220 465 192 427 _c
164 389 150 338 150 273 _c
150 207 163 156 191 118 _c
219 80 257 62 306 62 _c
354 62 392 80 420 118 _c
448 156 462 207 462 273 _c
462 337 448 389 420 427 _c
392 465 354 484 306 484 _c
306 560 _m
384 560 445 534 490 484 _c
534 433 557 363 557 273 _c
557 183 534 113 490 63 _c
445 12 384 -13 306 -13 _c
227 -13 165 12 121 63 _c
77 113 55 183 55 273 _c
55 363 77 433 121 484 _c
165 534 227 560 306 560 _c
_cl}_d
/r{411 0 91 0 411 560 _sc
411 463 _m
401 469 390 473 378 476 _c
366 478 353 480 339 480 _c
288 480 249 463 222 430 _c
194 397 181 350 181 288 _c
181 0 _l
91 0 _l
91 547 _l
181 547 _l
181 462 _l
199 495 224 520 254 536 _c
284 552 321 560 365 560 _c
371 560 378 559 386 559 _c
393 558 401 557 411 555 _c
411 463 _l
_cl}_d
/t{392 0 27 0 368 702 _sc
183 702 _m
183 547 _l
368 547 _l
368 477 _l
183 477 _l
183 180 _l
183 135 189 106 201 94 _c
213 81 238 75 276 75 _c
368 75 _l
368 0 _l
276 0 _l
206 0 158 13 132 39 _c
106 65 93 112 93 180 _c
93 477 _l
27 477 _l
27 547 _l
93 547 _l
93 702 _l
183 702 _l
_cl}_d
/u{634 0 85 -13 543 560 _sc
85 216 _m
85 547 _l
175 547 _l
175 219 _l
175 167 185 129 205 103 _c
225 77 255 64 296 64 _c
344 64 383 79 411 110 _c
439 141 453 183 453 237 _c
453 547 _l
543 547 _l
543 0 _l
453 0 _l
453 84 _l
431 50 405 26 377 10 _c
348 -5 315 -13 277 -13 _c
214 -13 166 6 134 45 _c
101 83 85 140 85 216 _c
311 560 _m
311 560 _l
_cl}_d
/x{592 0 29 0 559 547 _sc
549 547 _m
351 281 _l
559 0 _l
453 0 _l
294 215 _l
135 0 _l
29 0 _l
241 286 _l
47 547 _l
153 547 _l
298 352 _l
443 547 _l
549 547 _l
_cl}_d
/y{592 0 30 -207 562 547 _sc
322 -50 _m
296 -114 271 -157 247 -177 _c
223 -197 191 -207 151 -207 _c
79 -207 _l
79 -132 _l
132 -132 _l
156 -132 175 -126 189 -114 _c
203 -102 218 -75 235 -31 _c
251 9 _l
30 547 _l
125 547 _l
296 119 _l
467 547 _l
562 547 _l
322 -50 _l
_cl}_d
end readonly def

/BuildGlyph
 {exch begin
 CharStrings exch
 2 copy known not{pop /.notdef}if
 true 3 1 roll get exec
 end}_d

/BuildChar {
 1 index /Encoding get exch get
 1 index /BuildGlyph get exec
}_d

FontName currentdict end definefont pop
end
%%EndProlog
mpldict begin
18 108 translate
576 576 0 0 clipbox
gsave
0 0 m
576 0 l
576 576 l
0 576 l
cl
1.000 setgray
fill
grestore
gsave
72 63.36 m
518.4 63.36 l
518.4 506.88 l
72 506.88 l
cl
1.000 setgray
fill
grestore
0.800 setlinewidth
1 setlinejoin
0 setlinecap
[] 0 setdash
0.000 setgray
gsave
/o {
gsave
newpath
translate
0.8 setlinewidth
1 setlinejoin
0 setlinecap
0 0 m
0 -3.5 l

gsave
0.000 setgray
fill
grestore
stroke
grestore
} bind def
72 63.36 o
grestore
/DejaVuSans findfont
10.000 scalefont
setfont
gsave
64.046875 48.766250 translate
0.000000 rotate
0.000000 0.000000 m /zero glyphshow
6.362305 0.000000 m /period glyphshow
9.541016 0.000000 m /zero glyphshow
grestore
gsave
/o {
gsave
newpath
translate
0.8 setlinewidth
1 setlinejoin
0 setlinecap
0 0 m
0 -3.5 l

gsave
0.000 setgray
fill
grestore
stroke
grestore
} bind def
161.28 63.36 o
grestore
gsave
153.326875 48.766250 translate
0.000000 rotate
0.000000 0.000000 m /zero glyphshow
6.362305 0.000000 m /period glyphshow
9.541016 0.000000 m /two glyphshow
grestore
gsave
/o {
gsave
newpath
translate
0.8 setlinewidth
1 setlinejoin
0 setlinecap
0 0 m
0 -3.5 l

gsave
0.000 setgray
fill
grestore
stroke
grestore
} bind def
250.56 63.36 o
grestore
gsave
242.606875 48.766250 translate
0.000000 rotate
0.000000 0.000000 m /zero glyphshow
6.362305 0.000000 m /period glyphshow
9.541016 0.000000 m /four glyphshow
grestore
gsave
/o {
gsave
newpath
translate
0.8 setlinewidth
1 setlinejoin
0 setlinecap
0 0 m
0 -3.5 l

gsave
0.000 setgray
fill
grestore
stroke
grestore
} bind def
339.84 63.36 o
grestore
gsave
331.886875 48.766250 translate
0.000000 rotate
0.000000 0.000000 m /zero glyphshow
6.362305 0.000000 m /period glyphshow
9.541016 0.000000 m /six glyphshow
grestore
gsave
/o {
gsave
newpath
translate
0.8 setlinewidth
1 setlinejoin
0 setlinecap
0 0 m
0 -3.5 l

gsave
0.000 setgray
fill
grestore
stroke
grestore
} bind def
429.12 63.36 o
grestore
gsave
421.166875 48.766250 translate
0.000000 rotate
0.000000 0.000000 m /zero glyphshow
6.362305 0.000000 m /period glyphshow
9.541016 0.000000 m /eight glyphshow
grestore
gsave
/o {
gsave
newpath
translate
0.8 setlinewidth
1 setlinejoin
0 setlinecap
0 0 m
0 -3.5 l

gsave
0.000 setgray
fill
grestore
stroke
grestore
} bind def
518.4 63.36 o
grestore
gsave
510.446875 48.766250 translate
0.000000 rotate
0.000000 0.000000 m /one glyphshow
6.362305 0.000000 m /period glyphshow
9.541016 0.000000 m /zero glyphshow
grestore
/DejaVuSans findfont
20.000 scalefont
setfont
gsave
289.278125 27.485000 translate
0.000000 rotate
0.000000 0.000000 m /x glyphshow
grestore
gsave
/o {
gsave
newpath
translate
0.8 setlinewidth
1 setlinejoin
0 setlinecap
0 0 m
-3.5 0 l

gsave
0.000 setgray
fill
grestore
stroke
grestore
} bind def
72 63.36 o
grestore
/DejaVuSans findfont
10.000 scalefont
setfont
gsave
49.093750 59.563125 translate
0.000000 rotate
0.000000 0.000000 m /zero glyphshow
6.362305 0.000000 m /period glyphshow
9.541016 0.000000 m /zero glyphshow
grestore
gsave
/o {
gsave
newpath
translate
0.8 setlinewidth
1 setlinejoin
0 setlinecap
0 0 m
-3.5 0 l

gsave
0.000 setgray
fill
grestore
stroke
grestore
} bind def
72 152.064 o
grestore
gsave
49.093750 148.267125 translate
0.000000 rotate
0.000000 0.000000 m /zero glyphshow
6.362305 0.000000 m /period glyphshow
9.541016 0.000000 m /two glyphshow
grestore
gsave
/o {
gsave
newpath
translate
0.8 setlinewidth
1 setlinejoin
0 setlinecap
0 0 m
-3.5 0 l

gsave
0.000 setgray
fill
grestore
stroke
grestore
} bind def
72 240.768 o
grestore
gsave
49.093750 236.971125 translate
0.000000 rotate
0.000000 0.000000 m /zero glyphshow
6.362305 0.000000 m /period glyphshow
9.541016 0.000000 m /four glyphshow
grestore
gsave
/o {
gsave
newpath
translate
0.8 setlinewidth
1 setlinejoin
0 setlinecap
0 0 m
-3.5 0 l

gsave
0.000 setgray
fill
grestore
stroke
grestore
} bind def
72 329.472 o
grestore
gsave
49.093750 325.675125 translate
0.000000 rotate
0.000000 0.000000 m /zero glyphshow
6.362305 0.000000 m /period glyphshow
9.541016 0.000000 m /six glyphshow
grestore
gsave
/o {
gsave
newpath
translate
0.8 setlinewidth
1 setlinejoin
0 setlinecap
0 0 m
-3.5 0 l

gsave
0.000 setgray
fill
grestore
stroke
grestore
} bind def
72 418.176 o
grestore
gsave
49.093750 414.379125 translate
0.000000 rotate
0.000000 0.000000 m /zero glyphshow
6.362305 0.000000 m /period glyphshow
9.541016 0.000000 m /eight glyphshow
grestore
gsave
/o {
gsave
newpath
translate
0.8 setlinewidth
1 setlinejoin
0 setlinecap
0 0 m
-3.5 0 l

gsave
0.000 setgray
fill
grestore
stroke
grestore
} bind def
72 506.88 o
grestore
gsave
49.093750 503.083125 translate
0.000000 rotate
0.000000 0.000000 m /one glyphshow
6.362305 0.000000 m /period glyphshow
9.541016 0.000000 m /zero glyphshow
grestore
/DejaVuSans findfont
20.000 scalefont
setfont
gsave
40.937500 279.198125 translate
90.000000 rotate
0.000000 0.000000 m /y glyphshow
grestore
1.500 setlinewidth
2 setlinecap
1.000 0.000 0.000 setrgbcolor
gsave
446.4 443.5 72 63.36 clipbox
292.767285 210.287155 m
296.699254 209.243222 l
300.686084 208.42442 l
304.722291 207.823867 l
308.802388 207.434679 l
312.920891 207.249975 l
317.072314 207.26287 l
321.25117 207.466483 l
326.294288 207.952873 l
331.359532 208.692092 l
336.437423 209.672245 l
341.518484 210.881439 l
346.593233 212.307781 l
351.652193 213.939376 l
357.521711 216.086455 l
363.341783 218.477832 l
369.097356 221.094621 l
374.773379 223.917935 l
380.354798 226.928889 l
385.826562 230.108595 l
391.926425 233.924953 l
397.840935 237.908862 l
403.547622 242.03213 l
409.024019 246.266566 l
414.247656 250.583977 l
419.196065 254.95617 l
423.846775 259.354955 l
428.177319 263.752139 l
432.165227 268.11953 l
435.788031 272.428936 l
439.023261 276.652164 l
441.518493 280.254634 l
443.684733 283.750654 l
445.50693 287.121336 l
446.783572 289.896419 l
447.78691 292.553647 l
448.507463 295.081129 l
448.935754 297.46697 l
449.062596 299.33842 l
448.977886 301.09983 l
448.686228 302.754364 l
448.192988 304.30595 l
447.503535 305.758515 l
446.623236 307.115984 l
445.557457 308.382284 l
444.311567 309.561342 l
442.586308 310.866581 l
440.618692 312.058631 l
438.417993 313.144277 l
435.568292 314.285432 l
432.428692 315.301769 l
428.504491 316.324279 l
423.687531 317.316581 l
418.47482 318.163617 l
411.611948 319.035008 l
403.571419 319.82627 l
392.076897 320.714106 l
353.128623 323.528524 l
342.29727 324.628493 l
333.107034 325.775849 l
324.78329 327.028586 l
317.353888 328.353653 l
310.015654 329.88967 l
303.594619 331.450624 l
297.292334 333.212431 l
291.127118 335.183225 l
285.105134 337.344778 l
279.230026 339.673396 l
272.800629 342.463286 l
266.56692 345.400898 l
259.876399 348.797135 l
252.811756 352.640305 l
245.468058 356.890823 l
237.39537 361.82234 l
227.325626 368.250274 l
211.995787 378.060593 l
207.0942 380.926781 l
203.379584 382.851613 l
200.642543 384.03948 l
198.442457 384.773596 l
196.700136 385.14809 l
195.130943 385.255955 l
193.925566 385.124165 l
192.850715 384.774828 l
191.907929 384.197949 l
191.224264 383.536189 l
190.527587 382.516189 l
189.967328 381.240327 l
189.545026 379.698607 l
189.262217 377.881035 l
189.110617 375.398655 l
189.151956 372.524098 l
189.43313 368.786009 l
189.960803 364.599157 l
190.845144 359.397113 l
192.032962 353.723388 l
193.51976 347.62896 l
195.516943 340.425953 l
197.871513 332.836416 l
200.577301 324.930272 l
203.307701 317.601838 l
206.313092 310.124567 l
209.588976 302.549434 l
213.130854 294.927415 l
216.934229 287.309486 l
220.530898 280.582635 l
224.327469 273.935093 l
228.320782 267.402661 l
232.507679 261.021142 l
236.327529 255.589253 l
240.291057 250.324301 l
244.396145 245.25027 l
248.640678 240.391144 l
252.388231 236.415407 l
256.235346 232.630284 l
260.18069 229.05088 l
264.222929 225.692297 l
268.360732 222.569641 l
272.592766 219.698014 l
276.19048 217.507647 l
279.851936 215.510835 l
283.576362 213.71632 l
287.362986 212.132841 l
291.211038 210.76914 l
292.767285 210.287155 l
292.767285 210.287155 l
stroke
grestore
0.000 0.000 1.000 setrgbcolor
gsave
446.4 443.5 72 63.36 clipbox
296.206251 208.629039 m
300.371942 208.699842 l
304.529466 209.031171 l
308.675697 209.613757 l
312.807508 210.438331 l
316.921771 211.495625 l
321.015358 212.776369 l
325.085144 214.271295 l
329.128001 215.971134 l
333.140801 217.866617 l
337.912083 220.386396 l
342.630178 223.158539 l
347.289681 226.167029 l
351.885189 229.395849 l
356.411297 232.828983 l
361.596835 237.071169 l
366.671977 241.544215 l
371.628142 246.222687 l
376.456749 251.081151 l
381.149217 256.094175 l
386.33433 261.979974 l
391.317613 267.99646 l
396.086257 274.10567 l
400.627452 280.269637 l
404.928391 286.450396 l
409.463817 293.376551 l
413.660718 300.221853 l
417.500859 306.932246 l
420.966 313.453675 l
424.037905 319.732083 l
426.698336 325.713415 l
428.702985 330.737056 l
430.3553 335.445295 l
431.642472 339.800165 l
432.459147 343.290958 l
432.977871 346.456703 l
433.178844 348.892207 l
433.149844 351.055791 l
432.892498 352.949014 l
432.507446 354.327946 l
431.970613 355.532913 l
431.285102 356.570218 l
430.454013 357.446161 l
429.480449 358.167046 l
428.367511 358.739173 l
426.85238 359.238237 l
425.146376 359.543055 l
423.25486 359.664514 l
420.820774 359.588999 l
417.749625 359.23743 l
414.382026 358.627646 l
410.254944 357.665129 l
404.749428 356.142883 l
397.057728 353.755268 l
382.272686 348.864572 l
368.619742 344.448185 l
359.197067 341.616849 l
350.934683 339.342896 l
343.222785 337.432539 l
336.139915 335.884061 l
328.941124 334.535545 l
322.459506 333.534445 l
315.913293 332.746191 l
309.31519 332.196592 l
303.50927 331.931758 l
297.68186 331.886698 l
291.841646 332.074054 l
285.998186 332.483397 l
280.161308 333.097164 l
273.511258 334.02639 l
266.897312 335.17345 l
259.518045 336.691624 l
252.223929 338.414972 l
244.244629 340.525027 l
235.652799 343.024286 l
225.799889 346.12809 l
213.507306 350.253837 l
188.561444 358.719068 l
181.996584 360.688383 l
176.98926 361.986527 l
172.868165 362.843039 l
169.529099 363.325045 l
166.869698 363.509624 l
164.465389 363.454436 l
162.615036 363.20298 l
160.965507 362.751399 l
159.748772 362.214228 l
158.679378 361.523997 l
157.760908 360.674304 l
156.996941 359.658748 l
156.391061 358.470927 l
155.946849 357.104438 l
155.667885 355.55288 l
155.557753 353.809851 l
155.651686 351.460457 l
155.988261 348.841182 l
156.679409 345.465857 l
157.682698 341.770936 l
158.988371 337.782129 l
160.838318 332.896611 l
163.055903 327.699195 l
165.626562 322.228259 l
168.535727 316.522177 l
172.195023 309.869546 l
176.243567 303.022519 l
180.66062 296.035738 l
185.425441 288.963843 l
189.936025 282.650434 l
194.690436 276.351322 l
199.674109 270.104886 l
204.872477 263.949499 l
210.270973 257.923539 l
215.147375 252.787163 l
220.156091 247.80497 l
225.287361 243.002668 l
230.531429 238.405966 l
235.878536 234.040573 l
240.536384 230.502399 l
245.25662 227.169245 l
250.033099 224.0573 l
254.859675 221.182754 l
259.730204 218.561797 l
264.638541 216.21062 l
268.753269 214.469066 l
272.886428 212.935471 l
277.034463 211.619204 l
281.193817 210.529633 l
285.360934 209.676129 l
289.532258 209.068059 l
293.704233 208.714794 l
296.206251 208.629039 l
296.206251 208.629039 l
stroke
grestore
0.800 setlinewidth
0 setlinejoin
[] 0 setdash
0.000 setgray
gsave
72 63.36 m
72 506.88 l
stroke
grestore
gsave
518.4 63.36 m
518.4 506.88 l
stroke
grestore
gsave
72 63.36 m
518.4 63.36 l
stroke
grestore
gsave
72 506.88 m
518.4 506.88 l
stroke
grestore
1.000 setlinewidth
0 setlinecap
0.800 setgray
gsave
298.978125 432.16125 m
504.4 432.16125 l
507.066667 432.16125 508.4 433.494583 508.4 436.16125 c
508.4 492.88 l
508.4 495.546667 507.066667 496.88 504.4 496.88 c
298.978125 496.88 l
296.311458 496.88 294.978125 495.546667 294.978125 492.88 c
294.978125 436.16125 l
294.978125 433.494583 296.311458 432.16125 298.978125 432.16125 c
cl
gsave
1.000 setgray
fill
grestore
stroke
grestore
1.500 setlinewidth
1 setlinejoin
2 setlinecap
[] 0 setdash
1.000 0.000 0.000 setrgbcolor
gsave
302.978125 480.676875 m
342.978125 480.676875 l
stroke
grestore
0.000 setgray
gsave
358.978125 473.676875 translate
0.000000 rotate
0.000000 0.000000 m /T glyphshow
12.169922 0.000000 m /r glyphshow
20.392578 0.000000 m /u glyphshow
33.068359 0.000000 m /t glyphshow
40.910156 0.000000 m /h glyphshow
53.585938 0.000000 m /space glyphshow
59.943359 0.000000 m /S glyphshow
72.638672 0.000000 m /o glyphshow
84.875000 0.000000 m /l glyphshow
90.431641 0.000000 m /u glyphshow
103.107422 0.000000 m /t glyphshow
110.949219 0.000000 m /i glyphshow
116.505859 0.000000 m /o glyphshow
128.742188 0.000000 m /n glyphshow
grestore
0.000 0.000 1.000 setrgbcolor
gsave
302.978125 451.3175 m
342.978125 451.3175 l
stroke
grestore
0.000 setgray
gsave
358.978125 444.317500 translate
0.000000 rotate
0.000000 0.000000 m /P glyphshow
12.060547 0.000000 m /r glyphshow
20.283203 0.000000 m /e glyphshow
32.587891 0.000000 m /d glyphshow
45.283203 0.000000 m /i glyphshow
50.839844 0.000000 m /c glyphshow
61.835938 0.000000 m /t glyphshow
69.677734 0.000000 m /i glyphshow
75.234375 0.000000 m /o glyphshow
87.470703 0.000000 m /n glyphshow
grestore

end
showpage
