%!PS-Adobe-3.0 EPSF-3.0
%%Title: prediction.eps
%%Creator: matplotlib version 3.0.2, http://matplotlib.org/
%%CreationDate: Mon Jun 24 15:16:27 2019
%%Orientation: portrait
%%BoundingBox: 18 108 594 684
%%EndComments
%%BeginProlog
/mpldict 8 dict def
mpldict begin
/m { moveto } bind def
/l { lineto } bind def
/r { rlineto } bind def
/c { curveto } bind def
/cl { closepath } bind def
/box {
m
1 index 0 r
0 exch r
neg 0 r
cl
} bind def
/clipbox {
box
clip
newpath
} bind def
%!PS-Adobe-3.0 Resource-Font
%%Title: DejaVu Sans
%%Copyright: Copyright (c) 2003 by Bitstream, Inc. All Rights Reserved. Copyright (c) 2006 by Tavmjong Bah. All Rights Reserved. DejaVu changes are in public domain 
%%Creator: Converted from TrueType to type 3 by PPR
25 dict begin
/_d{bind def}bind def
/_m{moveto}_d
/_l{lineto}_d
/_cl{closepath eofill}_d
/_c{curveto}_d
/_sc{7 -1 roll{setcachedevice}{pop pop pop pop pop pop}ifelse}_d
/_e{exec}_d
/FontName /DejaVuSans def
/PaintType 0 def
/FontMatrix[.001 0 0 .001 0 0]def
/FontBBox[-1021 -463 1793 1232]def
/FontType 3 def
/Encoding [ /space /period /zero /one /two /four /six /eight /P /S /T /c /d /e /h /i /l /n /o /r /t /u /x /y ] def
/FontInfo 10 dict dup begin
/FamilyName (DejaVu Sans) def
/FullName (DejaVu Sans) def
/Notice (Copyright (c) 2003 by Bitstream, Inc. All Rights Reserved. Copyright (c) 2006 by Tavmjong Bah. All Rights Reserved. DejaVu changes are in public domain ) def
/Weight (Book) def
/Version (Version 2.35) def
/ItalicAngle 0.0 def
/isFixedPitch false def
/UnderlinePosition -130 def
/UnderlineThickness 90 def
end readonly def
/CharStrings 25 dict dup begin
/.notdef 0 def
/space{318 0 0 0 0 0 _sc
}_d
/period{318 0 107 0 210 124 _sc
107 124 _m
210 124 _l
210 0 _l
107 0 _l
107 124 _l
_cl}_d
/zero{636 0 66 -13 570 742 _sc
318 664 _m
267 664 229 639 203 589 _c
177 539 165 464 165 364 _c
165 264 177 189 203 139 _c
229 89 267 64 318 64 _c
369 64 407 89 433 139 _c
458 189 471 264 471 364 _c
471 464 458 539 433 589 _c
407 639 369 664 318 664 _c
318 742 _m
399 742 461 709 505 645 _c
548 580 570 486 570 364 _c
570 241 548 147 505 83 _c
461 19 399 -13 318 -13 _c
236 -13 173 19 130 83 _c
87 147 66 241 66 364 _c
66 486 87 580 130 645 _c
173 709 236 742 318 742 _c
_cl}_d
/one{636 0 110 0 544 729 _sc
124 83 _m
285 83 _l
285 639 _l
110 604 _l
110 694 _l
284 729 _l
383 729 _l
383 83 _l
544 83 _l
544 0 _l
124 0 _l
124 83 _l
_cl}_d
/two{{636 0 73 0 536 742 _sc
192 83 _m
536 83 _l
536 0 _l
73 0 _l
73 83 _l
110 121 161 173 226 239 _c
290 304 331 346 348 365 _c
380 400 402 430 414 455 _c
426 479 433 504 433 528 _c
433 566 419 598 392 622 _c
365 646 330 659 286 659 _c
255 659 222 653 188 643 _c
154 632 117 616 78 594 _c
78 694 _l
118 710 155 722 189 730 _c
223 738 255 742 284 742 _c
}_e{359 742 419 723 464 685 _c
509 647 532 597 532 534 _c
532 504 526 475 515 449 _c
504 422 484 390 454 354 _c
446 344 420 317 376 272 _c
332 227 271 164 192 83 _c
_cl}_e}_d
/four{636 0 49 0 580 729 _sc
378 643 _m
129 254 _l
378 254 _l
378 643 _l
352 729 _m
476 729 _l
476 254 _l
580 254 _l
580 172 _l
476 172 _l
476 0 _l
378 0 _l
378 172 _l
49 172 _l
49 267 _l
352 729 _l
_cl}_d
/six{{636 0 70 -13 573 742 _sc
330 404 _m
286 404 251 388 225 358 _c
199 328 186 286 186 234 _c
186 181 199 139 225 109 _c
251 79 286 64 330 64 _c
374 64 409 79 435 109 _c
461 139 474 181 474 234 _c
474 286 461 328 435 358 _c
409 388 374 404 330 404 _c
526 713 _m
526 623 _l
501 635 476 644 451 650 _c
425 656 400 659 376 659 _c
310 659 260 637 226 593 _c
}_e{192 549 172 482 168 394 _c
187 422 211 444 240 459 _c
269 474 301 482 336 482 _c
409 482 467 459 509 415 _c
551 371 573 310 573 234 _c
573 159 550 99 506 54 _c
462 9 403 -13 330 -13 _c
246 -13 181 19 137 83 _c
92 147 70 241 70 364 _c
70 479 97 571 152 639 _c
206 707 280 742 372 742 _c
396 742 421 739 447 735 _c
472 730 498 723 526 713 _c
_cl}_e}_d
/eight{{636 0 68 -13 568 742 _sc
318 346 _m
271 346 234 333 207 308 _c
180 283 167 249 167 205 _c
167 161 180 126 207 101 _c
234 76 271 64 318 64 _c
364 64 401 76 428 102 _c
455 127 469 161 469 205 _c
469 249 455 283 429 308 _c
402 333 365 346 318 346 _c
219 388 _m
177 398 144 418 120 447 _c
96 476 85 511 85 553 _c
85 611 105 657 147 691 _c
188 725 245 742 318 742 _c
}_e{390 742 447 725 489 691 _c
530 657 551 611 551 553 _c
551 511 539 476 515 447 _c
491 418 459 398 417 388 _c
464 377 501 355 528 323 _c
554 291 568 251 568 205 _c
568 134 546 80 503 43 _c
459 5 398 -13 318 -13 _c
237 -13 175 5 132 43 _c
89 80 68 134 68 205 _c
68 251 81 291 108 323 _c
134 355 171 377 219 388 _c
183 544 _m
183 506 194 476 218 455 _c
}_e{242 434 275 424 318 424 _c
360 424 393 434 417 455 _c
441 476 453 506 453 544 _c
453 582 441 611 417 632 _c
393 653 360 664 318 664 _c
275 664 242 653 218 632 _c
194 611 183 582 183 544 _c
_cl}_e}_d
/P{603 0 98 0 569 729 _sc
197 648 _m
197 374 _l
321 374 _l
367 374 402 385 427 409 _c
452 433 465 467 465 511 _c
465 555 452 588 427 612 _c
402 636 367 648 321 648 _c
197 648 _l
98 729 _m
321 729 _l
402 729 464 710 506 673 _c
548 636 569 582 569 511 _c
569 439 548 384 506 348 _c
464 311 402 293 321 293 _c
197 293 _l
197 0 _l
98 0 _l
98 729 _l
_cl}_d
/S{{635 0 66 -13 579 742 _sc
535 705 _m
535 609 _l
497 627 462 640 429 649 _c
395 657 363 662 333 662 _c
279 662 237 651 208 631 _c
179 610 165 580 165 542 _c
165 510 174 485 194 469 _c
213 452 250 439 304 429 _c
364 417 _l
437 403 491 378 526 343 _c
561 307 579 260 579 201 _c
579 130 555 77 508 41 _c
460 5 391 -13 300 -13 _c
265 -13 228 -9 189 -2 _c
}_e{150 5 110 16 69 32 _c
69 134 _l
109 111 148 94 186 83 _c
224 71 262 66 300 66 _c
356 66 399 77 430 99 _c
460 121 476 152 476 194 _c
476 230 465 258 443 278 _c
421 298 385 313 335 323 _c
275 335 _l
201 349 148 372 115 404 _c
82 435 66 478 66 534 _c
66 598 88 649 134 686 _c
179 723 242 742 322 742 _c
356 742 390 739 426 733 _c
461 727 497 717 535 705 _c
}_e{_cl}_e}_d
/T{611 0 -2 0 614 729 _sc
-2 729 _m
614 729 _l
614 646 _l
355 646 _l
355 0 _l
256 0 _l
256 646 _l
-2 646 _l
-2 729 _l
_cl}_d
/c{{550 0 55 -13 488 560 _sc
488 526 _m
488 442 _l
462 456 437 466 411 473 _c
385 480 360 484 334 484 _c
276 484 230 465 198 428 _c
166 391 150 339 150 273 _c
150 206 166 154 198 117 _c
230 80 276 62 334 62 _c
360 62 385 65 411 72 _c
437 79 462 90 488 104 _c
488 21 _l
462 9 436 0 410 -5 _c
383 -10 354 -13 324 -13 _c
242 -13 176 12 128 64 _c
}_e{79 115 55 185 55 273 _c
55 362 79 432 128 483 _c
177 534 244 560 330 560 _c
358 560 385 557 411 551 _c
437 545 463 537 488 526 _c
_cl}_e}_d
/d{{635 0 55 -13 544 760 _sc
454 464 _m
454 760 _l
544 760 _l
544 0 _l
454 0 _l
454 82 _l
435 49 411 25 382 10 _c
353 -5 319 -13 279 -13 _c
213 -13 159 13 117 65 _c
75 117 55 187 55 273 _c
55 359 75 428 117 481 _c
159 533 213 560 279 560 _c
319 560 353 552 382 536 _c
411 520 435 496 454 464 _c
148 273 _m
148 207 161 155 188 117 _c
215 79 253 61 301 61 _c
}_e{348 61 385 79 413 117 _c
440 155 454 207 454 273 _c
454 339 440 390 413 428 _c
385 466 348 485 301 485 _c
253 485 215 466 188 428 _c
161 390 148 339 148 273 _c
_cl}_e}_d
/e{{615 0 55 -13 562 560 _sc
562 296 _m
562 252 _l
149 252 _l
153 190 171 142 205 110 _c
238 78 284 62 344 62 _c
378 62 412 66 444 74 _c
476 82 509 95 541 113 _c
541 28 _l
509 14 476 3 442 -3 _c
408 -9 373 -13 339 -13 _c
251 -13 182 12 131 62 _c
80 112 55 181 55 268 _c
55 357 79 428 127 481 _c
175 533 241 560 323 560 _c
397 560 455 536 498 489 _c
}_e{540 441 562 377 562 296 _c
472 322 _m
471 371 457 410 431 440 _c
404 469 368 484 324 484 _c
274 484 234 469 204 441 _c
174 413 156 373 152 322 _c
472 322 _l
_cl}_e}_d
/h{634 0 91 0 549 760 _sc
549 330 _m
549 0 _l
459 0 _l
459 327 _l
459 379 448 417 428 443 _c
408 469 378 482 338 482 _c
289 482 251 466 223 435 _c
195 404 181 362 181 309 _c
181 0 _l
91 0 _l
91 760 _l
181 760 _l
181 462 _l
202 494 227 519 257 535 _c
286 551 320 560 358 560 _c
420 560 468 540 500 501 _c
532 462 549 405 549 330 _c
_cl}_d
/i{278 0 94 0 184 760 _sc
94 547 _m
184 547 _l
184 0 _l
94 0 _l
94 547 _l
94 760 _m
184 760 _l
184 646 _l
94 646 _l
94 760 _l
_cl}_d
/l{278 0 94 0 184 760 _sc
94 760 _m
184 760 _l
184 0 _l
94 0 _l
94 760 _l
_cl}_d
/n{634 0 91 0 549 560 _sc
549 330 _m
549 0 _l
459 0 _l
459 327 _l
459 379 448 417 428 443 _c
408 469 378 482 338 482 _c
289 482 251 466 223 435 _c
195 404 181 362 181 309 _c
181 0 _l
91 0 _l
91 547 _l
181 547 _l
181 462 _l
202 494 227 519 257 535 _c
286 551 320 560 358 560 _c
420 560 468 540 500 501 _c
532 462 549 405 549 330 _c
_cl}_d
/o{612 0 55 -13 557 560 _sc
306 484 _m
258 484 220 465 192 427 _c
164 389 150 338 150 273 _c
150 207 163 156 191 118 _c
219 80 257 62 306 62 _c
354 62 392 80 420 118 _c
448 156 462 207 462 273 _c
462 337 448 389 420 427 _c
392 465 354 484 306 484 _c
306 560 _m
384 560 445 534 490 484 _c
534 433 557 363 557 273 _c
557 183 534 113 490 63 _c
445 12 384 -13 306 -13 _c
227 -13 165 12 121 63 _c
77 113 55 183 55 273 _c
55 363 77 433 121 484 _c
165 534 227 560 306 560 _c
_cl}_d
/r{411 0 91 0 411 560 _sc
411 463 _m
401 469 390 473 378 476 _c
366 478 353 480 339 480 _c
288 480 249 463 222 430 _c
194 397 181 350 181 288 _c
181 0 _l
91 0 _l
91 547 _l
181 547 _l
181 462 _l
199 495 224 520 254 536 _c
284 552 321 560 365 560 _c
371 560 378 559 386 559 _c
393 558 401 557 411 555 _c
411 463 _l
_cl}_d
/t{392 0 27 0 368 702 _sc
183 702 _m
183 547 _l
368 547 _l
368 477 _l
183 477 _l
183 180 _l
183 135 189 106 201 94 _c
213 81 238 75 276 75 _c
368 75 _l
368 0 _l
276 0 _l
206 0 158 13 132 39 _c
106 65 93 112 93 180 _c
93 477 _l
27 477 _l
27 547 _l
93 547 _l
93 702 _l
183 702 _l
_cl}_d
/u{634 0 85 -13 543 560 _sc
85 216 _m
85 547 _l
175 547 _l
175 219 _l
175 167 185 129 205 103 _c
225 77 255 64 296 64 _c
344 64 383 79 411 110 _c
439 141 453 183 453 237 _c
453 547 _l
543 547 _l
543 0 _l
453 0 _l
453 84 _l
431 50 405 26 377 10 _c
348 -5 315 -13 277 -13 _c
214 -13 166 6 134 45 _c
101 83 85 140 85 216 _c
311 560 _m
311 560 _l
_cl}_d
/x{592 0 29 0 559 547 _sc
549 547 _m
351 281 _l
559 0 _l
453 0 _l
294 215 _l
135 0 _l
29 0 _l
241 286 _l
47 547 _l
153 547 _l
298 352 _l
443 547 _l
549 547 _l
_cl}_d
/y{592 0 30 -207 562 547 _sc
322 -50 _m
296 -114 271 -157 247 -177 _c
223 -197 191 -207 151 -207 _c
79 -207 _l
79 -132 _l
132 -132 _l
156 -132 175 -126 189 -114 _c
203 -102 218 -75 235 -31 _c
251 9 _l
30 547 _l
125 547 _l
296 119 _l
467 547 _l
562 547 _l
322 -50 _l
_cl}_d
end readonly def

/BuildGlyph
 {exch begin
 CharStrings exch
 2 copy known not{pop /.notdef}if
 true 3 1 roll get exec
 end}_d

/BuildChar {
 1 index /Encoding get exch get
 1 index /BuildGlyph get exec
}_d

FontName currentdict end definefont pop
end
%%EndProlog
mpldict begin
18 108 translate
576 576 0 0 clipbox
gsave
0 0 m
576 0 l
576 576 l
0 576 l
cl
1.000 setgray
fill
grestore
gsave
72 63.36 m
518.4 63.36 l
518.4 506.88 l
72 506.88 l
cl
1.000 setgray
fill
grestore
0.800 setlinewidth
1 setlinejoin
0 setlinecap
[] 0 setdash
0.000 setgray
gsave
/o {
gsave
newpath
translate
0.8 setlinewidth
1 setlinejoin
0 setlinecap
0 0 m
0 -3.5 l

gsave
0.000 setgray
fill
grestore
stroke
grestore
} bind def
72 63.36 o
grestore
/DejaVuSans findfont
10.000 scalefont
setfont
gsave
64.046875 48.766250 translate
0.000000 rotate
0.000000 0.000000 m /zero glyphshow
6.362305 0.000000 m /period glyphshow
9.541016 0.000000 m /zero glyphshow
grestore
gsave
/o {
gsave
newpath
translate
0.8 setlinewidth
1 setlinejoin
0 setlinecap
0 0 m
0 -3.5 l

gsave
0.000 setgray
fill
grestore
stroke
grestore
} bind def
161.28 63.36 o
grestore
gsave
153.326875 48.766250 translate
0.000000 rotate
0.000000 0.000000 m /zero glyphshow
6.362305 0.000000 m /period glyphshow
9.541016 0.000000 m /two glyphshow
grestore
gsave
/o {
gsave
newpath
translate
0.8 setlinewidth
1 setlinejoin
0 setlinecap
0 0 m
0 -3.5 l

gsave
0.000 setgray
fill
grestore
stroke
grestore
} bind def
250.56 63.36 o
grestore
gsave
242.606875 48.766250 translate
0.000000 rotate
0.000000 0.000000 m /zero glyphshow
6.362305 0.000000 m /period glyphshow
9.541016 0.000000 m /four glyphshow
grestore
gsave
/o {
gsave
newpath
translate
0.8 setlinewidth
1 setlinejoin
0 setlinecap
0 0 m
0 -3.5 l

gsave
0.000 setgray
fill
grestore
stroke
grestore
} bind def
339.84 63.36 o
grestore
gsave
331.886875 48.766250 translate
0.000000 rotate
0.000000 0.000000 m /zero glyphshow
6.362305 0.000000 m /period glyphshow
9.541016 0.000000 m /six glyphshow
grestore
gsave
/o {
gsave
newpath
translate
0.8 setlinewidth
1 setlinejoin
0 setlinecap
0 0 m
0 -3.5 l

gsave
0.000 setgray
fill
grestore
stroke
grestore
} bind def
429.12 63.36 o
grestore
gsave
421.166875 48.766250 translate
0.000000 rotate
0.000000 0.000000 m /zero glyphshow
6.362305 0.000000 m /period glyphshow
9.541016 0.000000 m /eight glyphshow
grestore
gsave
/o {
gsave
newpath
translate
0.8 setlinewidth
1 setlinejoin
0 setlinecap
0 0 m
0 -3.5 l

gsave
0.000 setgray
fill
grestore
stroke
grestore
} bind def
518.4 63.36 o
grestore
gsave
510.446875 48.766250 translate
0.000000 rotate
0.000000 0.000000 m /one glyphshow
6.362305 0.000000 m /period glyphshow
9.541016 0.000000 m /zero glyphshow
grestore
/DejaVuSans findfont
20.000 scalefont
setfont
gsave
289.278125 27.485000 translate
0.000000 rotate
0.000000 0.000000 m /x glyphshow
grestore
gsave
/o {
gsave
newpath
translate
0.8 setlinewidth
1 setlinejoin
0 setlinecap
0 0 m
-3.5 0 l

gsave
0.000 setgray
fill
grestore
stroke
grestore
} bind def
72 63.36 o
grestore
/DejaVuSans findfont
10.000 scalefont
setfont
gsave
49.093750 59.563125 translate
0.000000 rotate
0.000000 0.000000 m /zero glyphshow
6.362305 0.000000 m /period glyphshow
9.541016 0.000000 m /zero glyphshow
grestore
gsave
/o {
gsave
newpath
translate
0.8 setlinewidth
1 setlinejoin
0 setlinecap
0 0 m
-3.5 0 l

gsave
0.000 setgray
fill
grestore
stroke
grestore
} bind def
72 152.064 o
grestore
gsave
49.093750 148.267125 translate
0.000000 rotate
0.000000 0.000000 m /zero glyphshow
6.362305 0.000000 m /period glyphshow
9.541016 0.000000 m /two glyphshow
grestore
gsave
/o {
gsave
newpath
translate
0.8 setlinewidth
1 setlinejoin
0 setlinecap
0 0 m
-3.5 0 l

gsave
0.000 setgray
fill
grestore
stroke
grestore
} bind def
72 240.768 o
grestore
gsave
49.093750 236.971125 translate
0.000000 rotate
0.000000 0.000000 m /zero glyphshow
6.362305 0.000000 m /period glyphshow
9.541016 0.000000 m /four glyphshow
grestore
gsave
/o {
gsave
newpath
translate
0.8 setlinewidth
1 setlinejoin
0 setlinecap
0 0 m
-3.5 0 l

gsave
0.000 setgray
fill
grestore
stroke
grestore
} bind def
72 329.472 o
grestore
gsave
49.093750 325.675125 translate
0.000000 rotate
0.000000 0.000000 m /zero glyphshow
6.362305 0.000000 m /period glyphshow
9.541016 0.000000 m /six glyphshow
grestore
gsave
/o {
gsave
newpath
translate
0.8 setlinewidth
1 setlinejoin
0 setlinecap
0 0 m
-3.5 0 l

gsave
0.000 setgray
fill
grestore
stroke
grestore
} bind def
72 418.176 o
grestore
gsave
49.093750 414.379125 translate
0.000000 rotate
0.000000 0.000000 m /zero glyphshow
6.362305 0.000000 m /period glyphshow
9.541016 0.000000 m /eight glyphshow
grestore
gsave
/o {
gsave
newpath
translate
0.8 setlinewidth
1 setlinejoin
0 setlinecap
0 0 m
-3.5 0 l

gsave
0.000 setgray
fill
grestore
stroke
grestore
} bind def
72 506.88 o
grestore
gsave
49.093750 503.083125 translate
0.000000 rotate
0.000000 0.000000 m /one glyphshow
6.362305 0.000000 m /period glyphshow
9.541016 0.000000 m /zero glyphshow
grestore
/DejaVuSans findfont
20.000 scalefont
setfont
gsave
40.937500 279.198125 translate
90.000000 rotate
0.000000 0.000000 m /y glyphshow
grestore
1.500 setlinewidth
2 setlinecap
1.000 0.000 0.000 setrgbcolor
gsave
446.4 443.5 72 63.36 clipbox
294.714375 250.934268 m
299.052798 250.436982 l
304.310414 249.589564 l
309.615547 248.486416 l
314.959013 247.146316 l
320.331627 245.588039 l
326.624266 243.51935 l
332.929496 241.209074 l
340.132181 238.311186 l
347.310492 235.181208 l
355.329853 231.43798 l
364.134061 227.077473 l
374.493561 221.683647 l
387.836777 214.464944 l
410.126748 202.3803 l
418.437162 198.162798 l
424.252271 195.437388 l
429.092739 193.386914 l
433.056657 191.916552 l
436.751903 190.779643 l
439.694362 190.093153 l
442.41953 189.692331 l
444.517892 189.59008 l
446.453666 189.710115 l
448.221537 190.063303 l
449.511371 190.521026 l
450.687625 191.140486 l
451.747576 191.927244 l
452.688505 192.886866 l
453.507688 194.024913 l
454.202407 195.346951 l
454.769938 196.858543 l
455.207561 198.565251 l
455.567761 200.981495 l
455.715413 203.722169 l
455.645366 206.797733 l
455.357281 210.206708 l
454.731041 214.716277 l
453.807647 219.656893 l
452.596507 225.00121 l
450.832382 231.710002 l
448.704349 238.887638 l
446.227348 246.490695 l
442.988347 255.645126 l
439.335368 265.233679 l
435.29071 275.191539 l
430.876677 285.453889 l
426.11557 295.955914 l
421.02969 306.632796 l
415.641339 317.419721 l
409.972819 328.251872 l
404.046431 339.064432 l
397.884478 349.792586 l
392.317063 359.059528 l
386.601308 368.1688 l
380.752154 377.076979 l
374.78454 385.740646 l
368.713407 394.116377 l
363.438512 401.033488 l
358.107947 407.679809 l
352.73112 414.027995 l
347.317442 420.050703 l
341.876319 425.720587 l
337.327874 430.156246 l
332.772348 434.312075 l
328.215188 438.172251 l
323.661837 441.720949 l
319.11774 444.942345 l
315.492785 447.273171 l
311.880025 449.376294 l
308.282247 451.243611 l
304.702241 452.867023 l
301.142792 454.238425 l
297.606689 455.349716 l
294.09672 456.192795 l
290.615673 456.759558 l
287.166251 457.042551 l
283.750039 457.043087 l
280.367809 456.768803 l
277.020318 456.227473 l
273.708322 455.426873 l
270.432575 454.374777 l
267.193835 453.07896 l
263.992856 451.547198 l
260.830395 449.787265 l
257.707207 447.806936 l
254.624049 445.613987 l
251.581676 443.216193 l
247.837215 439.942731 l
244.159139 436.376532 l
240.548922 432.532782 l
237.008042 428.426665 l
233.537975 424.073369 l
230.140197 419.488078 l
226.160363 413.700878 l
222.289302 407.627714 l
218.529565 401.294826 l
214.883703 394.728455 l
211.354266 387.954843 l
207.387141 379.825372 l
203.586008 371.491207 l
199.954917 362.994019 l
196.497919 354.375475 l
192.765434 344.430567 l
189.271673 334.443779 l
186.022683 324.477313 l
183.02451 314.593369 l
180.283201 304.854146 l
177.513789 294.147955 l
175.085732 283.792211 l
173.007641 273.875479 l
171.288123 264.486319 l
170.067648 256.654895 l
169.14334 249.372495 l
168.521246 242.701318 l
168.229576 237.41433 l
168.17797 232.684601 l
168.369695 228.54736 l
168.726179 225.466432 l
169.257109 222.79639 l
169.959708 220.519561 l
170.674341 218.909823 l
171.504656 217.550649 l
172.449046 216.431812 l
173.505905 215.543082 l
174.673627 214.874234 l
175.950607 214.415039 l
177.335237 214.15527 l
178.825911 214.084698 l
180.752438 214.235354 l
182.826582 214.626054 l
185.429283 215.361681 l
188.639547 216.537016 l
192.543808 218.23583 l
197.723388 220.769619 l
205.479971 224.849595 l
220.076644 232.556157 l
227.774657 236.342992 l
234.510213 239.401131 l
240.810013 242.005339 l
246.591099 244.152316 l
251.784099 245.866947 l
257.098061 247.399135 l
262.528579 248.720814 l
267.272736 249.664863 l
272.096512 250.41596 l
276.997131 250.956433 l
281.971819 251.26861 l
287.0178 251.334815 l
291.275242 251.189341 l
294.714375 250.934268 l
294.714375 250.934268 l
stroke
grestore
0.000 0.000 1.000 setrgbcolor
gsave
446.4 443.5 72 63.36 clipbox
297.397882 246.894906 m
302.35193 246.560076 l
307.302085 246.007466 l
312.242389 245.252572 l
317.985675 244.13687 l
323.697978 242.791535 l
329.369838 241.241175 l
335.790302 239.249848 l
342.131459 237.059605 l
349.152877 234.403548 l
356.791305 231.275239 l
365.693102 227.373 l
376.345967 222.446915 l
398.654003 212.041397 l
404.786265 209.454935 l
409.445424 207.700374 l
413.298791 206.459534 l
416.436465 205.650037 l
419.345806 205.124143 l
421.650619 204.917753 l
423.774768 204.953299 l
425.402584 205.178912 l
426.897353 205.592264 l
428.255624 206.202323 l
429.473952 207.018058 l
430.548886 208.048434 l
431.476978 209.302421 l
432.254782 210.788985 l
432.878847 212.517094 l
433.345726 214.495716 l
433.651971 216.733819 l
433.794134 219.24037 l
433.743303 222.61515 l
433.448819 226.393537 l
432.915914 230.555201 l
432.001179 235.863461 l
430.780329 241.623918 l
429.022952 248.713011 l
426.893487 256.288012 l
424.406727 264.29307 l
421.577464 272.672336 l
418.420491 281.36996 l
414.950599 290.330094 l
411.182581 299.496887 l
407.131229 308.81449 l
402.811336 318.227054 l
398.237692 327.678729 l
393.425091 337.113666 l
388.388325 346.476015 l
383.142186 355.709928 l
378.391692 363.640337 l
373.502131 371.392238 l
368.483413 378.928214 l
363.345449 386.210852 l
358.85408 392.223115 l
354.288621 397.998202 l
349.655314 403.512551 l
344.960399 408.742601 l
340.210116 413.66479 l
336.213755 417.514444 l
332.186888 421.120309 l
328.133128 424.46875 l
324.056086 427.546131 l
319.959373 430.338817 l
315.846601 432.833173 l
312.547247 434.604697 l
309.241776 436.169583 l
305.932036 437.520849 l
302.619877 438.651513 l
299.307146 439.554596 l
295.995695 440.223115 l
292.687371 440.650089 l
289.38402 440.828658 l
286.087367 440.757462 l
282.798962 440.442768 l
279.520347 439.891407 l
276.25306 439.110208 l
272.998641 438.106002 l
269.75863 436.88562 l
266.534567 435.45589 l
263.327992 433.823644 l
260.140443 431.995711 l
256.185109 429.446016 l
252.264918 426.614574 l
248.382877 423.514723 l
244.541993 420.159806 l
240.745273 416.563161 l
236.995725 412.738128 l
232.562767 407.865401 l
228.207263 402.706058 l
223.934409 397.283151 l
219.749402 391.619732 l
215.657438 385.738852 l
211.008008 378.633734 l
206.500545 371.300608 l
202.143301 363.776082 l
197.944526 356.09676 l
193.912473 348.299248 l
189.519148 339.290041 l
185.366677 330.228915 l
181.467378 321.170511 l
177.833568 312.169472 l
174.477565 303.280439 l
171.411687 294.558052 l
168.648251 286.056954 l
166.199574 277.831785 l
164.077974 269.937187 l
162.295769 262.427801 l
160.865275 255.358268 l
159.91179 249.5762 l
159.245267 244.209334 l
158.873958 239.294277 l
158.796913 235.468721 l
158.947585 232.023503 l
159.324838 228.959116 l
159.808418 226.685815 l
160.442437 224.658131 l
161.223724 222.867393 l
162.149109 221.304927 l
163.215422 219.96206 l
164.419493 218.83012 l
165.758151 217.900435 l
167.228225 217.164331 l
168.826546 216.613137 l
170.549944 216.238178 l
172.778657 216.008649 l
175.177437 216.005424 l
177.740805 216.213519 l
180.932113 216.703386 l
184.833346 217.559928 l
188.993092 218.698899 l
194.536526 220.465661 l
201.659339 222.997332 l
213.215031 227.386882 l
228.565401 233.187554 l
237.417413 236.308215 l
245.0115 238.77346 l
251.992759 240.825713 l
258.299378 242.47508 l
264.687582 243.922873 l
270.333977 244.996412 l
276.024194 245.864625 l
281.749535 246.503714 l
286.67833 246.851102 l
291.62106 246.997684 l
296.572246 246.928473 l
297.397882 246.894906 l
297.397882 246.894906 l
stroke
grestore
0.800 setlinewidth
0 setlinejoin
[] 0 setdash
0.000 setgray
gsave
72 63.36 m
72 506.88 l
stroke
grestore
gsave
518.4 63.36 m
518.4 506.88 l
stroke
grestore
gsave
72 63.36 m
518.4 63.36 l
stroke
grestore
gsave
72 506.88 m
518.4 506.88 l
stroke
grestore
1.000 setlinewidth
0 setlinecap
0.800 setgray
gsave
86 73.36 m
291.421875 73.36 l
294.088542 73.36 295.421875 74.693333 295.421875 77.36 c
295.421875 134.07875 l
295.421875 136.745417 294.088542 138.07875 291.421875 138.07875 c
86 138.07875 l
83.333333 138.07875 82 136.745417 82 134.07875 c
82 77.36 l
82 74.693333 83.333333 73.36 86 73.36 c
cl
gsave
1.000 setgray
fill
grestore
stroke
grestore
1.500 setlinewidth
1 setlinejoin
2 setlinecap
[] 0 setdash
1.000 0.000 0.000 setrgbcolor
gsave
90 121.875625 m
130 121.875625 l
stroke
grestore
0.000 setgray
gsave
146.000000 114.875625 translate
0.000000 rotate
0.000000 0.000000 m /T glyphshow
12.169922 0.000000 m /r glyphshow
20.392578 0.000000 m /u glyphshow
33.068359 0.000000 m /t glyphshow
40.910156 0.000000 m /h glyphshow
53.585938 0.000000 m /space glyphshow
59.943359 0.000000 m /S glyphshow
72.638672 0.000000 m /o glyphshow
84.875000 0.000000 m /l glyphshow
90.431641 0.000000 m /u glyphshow
103.107422 0.000000 m /t glyphshow
110.949219 0.000000 m /i glyphshow
116.505859 0.000000 m /o glyphshow
128.742188 0.000000 m /n glyphshow
grestore
0.000 0.000 1.000 setrgbcolor
gsave
90 92.51625 m
130 92.51625 l
stroke
grestore
0.000 setgray
gsave
146.000000 85.516250 translate
0.000000 rotate
0.000000 0.000000 m /P glyphshow
12.060547 0.000000 m /r glyphshow
20.283203 0.000000 m /e glyphshow
32.587891 0.000000 m /d glyphshow
45.283203 0.000000 m /i glyphshow
50.839844 0.000000 m /c glyphshow
61.835938 0.000000 m /t glyphshow
69.677734 0.000000 m /i glyphshow
75.234375 0.000000 m /o glyphshow
87.470703 0.000000 m /n glyphshow
grestore

end
showpage
