%!PS-Adobe-3.0 EPSF-3.0
%%Title: blob_prediction5.eps
%%Creator: matplotlib version 3.0.2, http://matplotlib.org/
%%CreationDate: Mon Jun 24 20:01:00 2019
%%Orientation: portrait
%%BoundingBox: 18 108 594 684
%%EndComments
%%BeginProlog
/mpldict 8 dict def
mpldict begin
/m { moveto } bind def
/l { lineto } bind def
/r { rlineto } bind def
/c { curveto } bind def
/cl { closepath } bind def
/box {
m
1 index 0 r
0 exch r
neg 0 r
cl
} bind def
/clipbox {
box
clip
newpath
} bind def
%!PS-Adobe-3.0 Resource-Font
%%Title: DejaVu Sans
%%Copyright: Copyright (c) 2003 by Bitstream, Inc. All Rights Reserved. Copyright (c) 2006 by Tavmjong Bah. All Rights Reserved. DejaVu changes are in public domain 
%%Creator: Converted from TrueType to type 3 by PPR
25 dict begin
/_d{bind def}bind def
/_m{moveto}_d
/_l{lineto}_d
/_cl{closepath eofill}_d
/_c{curveto}_d
/_sc{7 -1 roll{setcachedevice}{pop pop pop pop pop pop}ifelse}_d
/_e{exec}_d
/FontName /DejaVuSans def
/PaintType 0 def
/FontMatrix[.001 0 0 .001 0 0]def
/FontBBox[-1021 -463 1793 1232]def
/FontType 3 def
/Encoding [ /space /period /zero /one /two /four /six /eight /P /S /T /c /d /e /h /i /l /n /o /r /t /u /x /y ] def
/FontInfo 10 dict dup begin
/FamilyName (DejaVu Sans) def
/FullName (DejaVu Sans) def
/Notice (Copyright (c) 2003 by Bitstream, Inc. All Rights Reserved. Copyright (c) 2006 by Tavmjong Bah. All Rights Reserved. DejaVu changes are in public domain ) def
/Weight (Book) def
/Version (Version 2.35) def
/ItalicAngle 0.0 def
/isFixedPitch false def
/UnderlinePosition -130 def
/UnderlineThickness 90 def
end readonly def
/CharStrings 25 dict dup begin
/.notdef 0 def
/space{318 0 0 0 0 0 _sc
}_d
/period{318 0 107 0 210 124 _sc
107 124 _m
210 124 _l
210 0 _l
107 0 _l
107 124 _l
_cl}_d
/zero{636 0 66 -13 570 742 _sc
318 664 _m
267 664 229 639 203 589 _c
177 539 165 464 165 364 _c
165 264 177 189 203 139 _c
229 89 267 64 318 64 _c
369 64 407 89 433 139 _c
458 189 471 264 471 364 _c
471 464 458 539 433 589 _c
407 639 369 664 318 664 _c
318 742 _m
399 742 461 709 505 645 _c
548 580 570 486 570 364 _c
570 241 548 147 505 83 _c
461 19 399 -13 318 -13 _c
236 -13 173 19 130 83 _c
87 147 66 241 66 364 _c
66 486 87 580 130 645 _c
173 709 236 742 318 742 _c
_cl}_d
/one{636 0 110 0 544 729 _sc
124 83 _m
285 83 _l
285 639 _l
110 604 _l
110 694 _l
284 729 _l
383 729 _l
383 83 _l
544 83 _l
544 0 _l
124 0 _l
124 83 _l
_cl}_d
/two{{636 0 73 0 536 742 _sc
192 83 _m
536 83 _l
536 0 _l
73 0 _l
73 83 _l
110 121 161 173 226 239 _c
290 304 331 346 348 365 _c
380 400 402 430 414 455 _c
426 479 433 504 433 528 _c
433 566 419 598 392 622 _c
365 646 330 659 286 659 _c
255 659 222 653 188 643 _c
154 632 117 616 78 594 _c
78 694 _l
118 710 155 722 189 730 _c
223 738 255 742 284 742 _c
}_e{359 742 419 723 464 685 _c
509 647 532 597 532 534 _c
532 504 526 475 515 449 _c
504 422 484 390 454 354 _c
446 344 420 317 376 272 _c
332 227 271 164 192 83 _c
_cl}_e}_d
/four{636 0 49 0 580 729 _sc
378 643 _m
129 254 _l
378 254 _l
378 643 _l
352 729 _m
476 729 _l
476 254 _l
580 254 _l
580 172 _l
476 172 _l
476 0 _l
378 0 _l
378 172 _l
49 172 _l
49 267 _l
352 729 _l
_cl}_d
/six{{636 0 70 -13 573 742 _sc
330 404 _m
286 404 251 388 225 358 _c
199 328 186 286 186 234 _c
186 181 199 139 225 109 _c
251 79 286 64 330 64 _c
374 64 409 79 435 109 _c
461 139 474 181 474 234 _c
474 286 461 328 435 358 _c
409 388 374 404 330 404 _c
526 713 _m
526 623 _l
501 635 476 644 451 650 _c
425 656 400 659 376 659 _c
310 659 260 637 226 593 _c
}_e{192 549 172 482 168 394 _c
187 422 211 444 240 459 _c
269 474 301 482 336 482 _c
409 482 467 459 509 415 _c
551 371 573 310 573 234 _c
573 159 550 99 506 54 _c
462 9 403 -13 330 -13 _c
246 -13 181 19 137 83 _c
92 147 70 241 70 364 _c
70 479 97 571 152 639 _c
206 707 280 742 372 742 _c
396 742 421 739 447 735 _c
472 730 498 723 526 713 _c
_cl}_e}_d
/eight{{636 0 68 -13 568 742 _sc
318 346 _m
271 346 234 333 207 308 _c
180 283 167 249 167 205 _c
167 161 180 126 207 101 _c
234 76 271 64 318 64 _c
364 64 401 76 428 102 _c
455 127 469 161 469 205 _c
469 249 455 283 429 308 _c
402 333 365 346 318 346 _c
219 388 _m
177 398 144 418 120 447 _c
96 476 85 511 85 553 _c
85 611 105 657 147 691 _c
188 725 245 742 318 742 _c
}_e{390 742 447 725 489 691 _c
530 657 551 611 551 553 _c
551 511 539 476 515 447 _c
491 418 459 398 417 388 _c
464 377 501 355 528 323 _c
554 291 568 251 568 205 _c
568 134 546 80 503 43 _c
459 5 398 -13 318 -13 _c
237 -13 175 5 132 43 _c
89 80 68 134 68 205 _c
68 251 81 291 108 323 _c
134 355 171 377 219 388 _c
183 544 _m
183 506 194 476 218 455 _c
}_e{242 434 275 424 318 424 _c
360 424 393 434 417 455 _c
441 476 453 506 453 544 _c
453 582 441 611 417 632 _c
393 653 360 664 318 664 _c
275 664 242 653 218 632 _c
194 611 183 582 183 544 _c
_cl}_e}_d
/P{603 0 98 0 569 729 _sc
197 648 _m
197 374 _l
321 374 _l
367 374 402 385 427 409 _c
452 433 465 467 465 511 _c
465 555 452 588 427 612 _c
402 636 367 648 321 648 _c
197 648 _l
98 729 _m
321 729 _l
402 729 464 710 506 673 _c
548 636 569 582 569 511 _c
569 439 548 384 506 348 _c
464 311 402 293 321 293 _c
197 293 _l
197 0 _l
98 0 _l
98 729 _l
_cl}_d
/S{{635 0 66 -13 579 742 _sc
535 705 _m
535 609 _l
497 627 462 640 429 649 _c
395 657 363 662 333 662 _c
279 662 237 651 208 631 _c
179 610 165 580 165 542 _c
165 510 174 485 194 469 _c
213 452 250 439 304 429 _c
364 417 _l
437 403 491 378 526 343 _c
561 307 579 260 579 201 _c
579 130 555 77 508 41 _c
460 5 391 -13 300 -13 _c
265 -13 228 -9 189 -2 _c
}_e{150 5 110 16 69 32 _c
69 134 _l
109 111 148 94 186 83 _c
224 71 262 66 300 66 _c
356 66 399 77 430 99 _c
460 121 476 152 476 194 _c
476 230 465 258 443 278 _c
421 298 385 313 335 323 _c
275 335 _l
201 349 148 372 115 404 _c
82 435 66 478 66 534 _c
66 598 88 649 134 686 _c
179 723 242 742 322 742 _c
356 742 390 739 426 733 _c
461 727 497 717 535 705 _c
}_e{_cl}_e}_d
/T{611 0 -2 0 614 729 _sc
-2 729 _m
614 729 _l
614 646 _l
355 646 _l
355 0 _l
256 0 _l
256 646 _l
-2 646 _l
-2 729 _l
_cl}_d
/c{{550 0 55 -13 488 560 _sc
488 526 _m
488 442 _l
462 456 437 466 411 473 _c
385 480 360 484 334 484 _c
276 484 230 465 198 428 _c
166 391 150 339 150 273 _c
150 206 166 154 198 117 _c
230 80 276 62 334 62 _c
360 62 385 65 411 72 _c
437 79 462 90 488 104 _c
488 21 _l
462 9 436 0 410 -5 _c
383 -10 354 -13 324 -13 _c
242 -13 176 12 128 64 _c
}_e{79 115 55 185 55 273 _c
55 362 79 432 128 483 _c
177 534 244 560 330 560 _c
358 560 385 557 411 551 _c
437 545 463 537 488 526 _c
_cl}_e}_d
/d{{635 0 55 -13 544 760 _sc
454 464 _m
454 760 _l
544 760 _l
544 0 _l
454 0 _l
454 82 _l
435 49 411 25 382 10 _c
353 -5 319 -13 279 -13 _c
213 -13 159 13 117 65 _c
75 117 55 187 55 273 _c
55 359 75 428 117 481 _c
159 533 213 560 279 560 _c
319 560 353 552 382 536 _c
411 520 435 496 454 464 _c
148 273 _m
148 207 161 155 188 117 _c
215 79 253 61 301 61 _c
}_e{348 61 385 79 413 117 _c
440 155 454 207 454 273 _c
454 339 440 390 413 428 _c
385 466 348 485 301 485 _c
253 485 215 466 188 428 _c
161 390 148 339 148 273 _c
_cl}_e}_d
/e{{615 0 55 -13 562 560 _sc
562 296 _m
562 252 _l
149 252 _l
153 190 171 142 205 110 _c
238 78 284 62 344 62 _c
378 62 412 66 444 74 _c
476 82 509 95 541 113 _c
541 28 _l
509 14 476 3 442 -3 _c
408 -9 373 -13 339 -13 _c
251 -13 182 12 131 62 _c
80 112 55 181 55 268 _c
55 357 79 428 127 481 _c
175 533 241 560 323 560 _c
397 560 455 536 498 489 _c
}_e{540 441 562 377 562 296 _c
472 322 _m
471 371 457 410 431 440 _c
404 469 368 484 324 484 _c
274 484 234 469 204 441 _c
174 413 156 373 152 322 _c
472 322 _l
_cl}_e}_d
/h{634 0 91 0 549 760 _sc
549 330 _m
549 0 _l
459 0 _l
459 327 _l
459 379 448 417 428 443 _c
408 469 378 482 338 482 _c
289 482 251 466 223 435 _c
195 404 181 362 181 309 _c
181 0 _l
91 0 _l
91 760 _l
181 760 _l
181 462 _l
202 494 227 519 257 535 _c
286 551 320 560 358 560 _c
420 560 468 540 500 501 _c
532 462 549 405 549 330 _c
_cl}_d
/i{278 0 94 0 184 760 _sc
94 547 _m
184 547 _l
184 0 _l
94 0 _l
94 547 _l
94 760 _m
184 760 _l
184 646 _l
94 646 _l
94 760 _l
_cl}_d
/l{278 0 94 0 184 760 _sc
94 760 _m
184 760 _l
184 0 _l
94 0 _l
94 760 _l
_cl}_d
/n{634 0 91 0 549 560 _sc
549 330 _m
549 0 _l
459 0 _l
459 327 _l
459 379 448 417 428 443 _c
408 469 378 482 338 482 _c
289 482 251 466 223 435 _c
195 404 181 362 181 309 _c
181 0 _l
91 0 _l
91 547 _l
181 547 _l
181 462 _l
202 494 227 519 257 535 _c
286 551 320 560 358 560 _c
420 560 468 540 500 501 _c
532 462 549 405 549 330 _c
_cl}_d
/o{612 0 55 -13 557 560 _sc
306 484 _m
258 484 220 465 192 427 _c
164 389 150 338 150 273 _c
150 207 163 156 191 118 _c
219 80 257 62 306 62 _c
354 62 392 80 420 118 _c
448 156 462 207 462 273 _c
462 337 448 389 420 427 _c
392 465 354 484 306 484 _c
306 560 _m
384 560 445 534 490 484 _c
534 433 557 363 557 273 _c
557 183 534 113 490 63 _c
445 12 384 -13 306 -13 _c
227 -13 165 12 121 63 _c
77 113 55 183 55 273 _c
55 363 77 433 121 484 _c
165 534 227 560 306 560 _c
_cl}_d
/r{411 0 91 0 411 560 _sc
411 463 _m
401 469 390 473 378 476 _c
366 478 353 480 339 480 _c
288 480 249 463 222 430 _c
194 397 181 350 181 288 _c
181 0 _l
91 0 _l
91 547 _l
181 547 _l
181 462 _l
199 495 224 520 254 536 _c
284 552 321 560 365 560 _c
371 560 378 559 386 559 _c
393 558 401 557 411 555 _c
411 463 _l
_cl}_d
/t{392 0 27 0 368 702 _sc
183 702 _m
183 547 _l
368 547 _l
368 477 _l
183 477 _l
183 180 _l
183 135 189 106 201 94 _c
213 81 238 75 276 75 _c
368 75 _l
368 0 _l
276 0 _l
206 0 158 13 132 39 _c
106 65 93 112 93 180 _c
93 477 _l
27 477 _l
27 547 _l
93 547 _l
93 702 _l
183 702 _l
_cl}_d
/u{634 0 85 -13 543 560 _sc
85 216 _m
85 547 _l
175 547 _l
175 219 _l
175 167 185 129 205 103 _c
225 77 255 64 296 64 _c
344 64 383 79 411 110 _c
439 141 453 183 453 237 _c
453 547 _l
543 547 _l
543 0 _l
453 0 _l
453 84 _l
431 50 405 26 377 10 _c
348 -5 315 -13 277 -13 _c
214 -13 166 6 134 45 _c
101 83 85 140 85 216 _c
311 560 _m
311 560 _l
_cl}_d
/x{592 0 29 0 559 547 _sc
549 547 _m
351 281 _l
559 0 _l
453 0 _l
294 215 _l
135 0 _l
29 0 _l
241 286 _l
47 547 _l
153 547 _l
298 352 _l
443 547 _l
549 547 _l
_cl}_d
/y{592 0 30 -207 562 547 _sc
322 -50 _m
296 -114 271 -157 247 -177 _c
223 -197 191 -207 151 -207 _c
79 -207 _l
79 -132 _l
132 -132 _l
156 -132 175 -126 189 -114 _c
203 -102 218 -75 235 -31 _c
251 9 _l
30 547 _l
125 547 _l
296 119 _l
467 547 _l
562 547 _l
322 -50 _l
_cl}_d
end readonly def

/BuildGlyph
 {exch begin
 CharStrings exch
 2 copy known not{pop /.notdef}if
 true 3 1 roll get exec
 end}_d

/BuildChar {
 1 index /Encoding get exch get
 1 index /BuildGlyph get exec
}_d

FontName currentdict end definefont pop
end
%%EndProlog
mpldict begin
18 108 translate
576 576 0 0 clipbox
gsave
0 0 m
576 0 l
576 576 l
0 576 l
cl
1.000 setgray
fill
grestore
gsave
72 63.36 m
518.4 63.36 l
518.4 506.88 l
72 506.88 l
cl
1.000 setgray
fill
grestore
0.800 setlinewidth
1 setlinejoin
0 setlinecap
[] 0 setdash
0.000 setgray
gsave
/o {
gsave
newpath
translate
0.8 setlinewidth
1 setlinejoin
0 setlinecap
0 0 m
0 -3.5 l

gsave
0.000 setgray
fill
grestore
stroke
grestore
} bind def
72 63.36 o
grestore
/DejaVuSans findfont
10.000 scalefont
setfont
gsave
64.046875 48.766250 translate
0.000000 rotate
0.000000 0.000000 m /zero glyphshow
6.362305 0.000000 m /period glyphshow
9.541016 0.000000 m /zero glyphshow
grestore
gsave
/o {
gsave
newpath
translate
0.8 setlinewidth
1 setlinejoin
0 setlinecap
0 0 m
0 -3.5 l

gsave
0.000 setgray
fill
grestore
stroke
grestore
} bind def
161.28 63.36 o
grestore
gsave
153.326875 48.766250 translate
0.000000 rotate
0.000000 0.000000 m /zero glyphshow
6.362305 0.000000 m /period glyphshow
9.541016 0.000000 m /two glyphshow
grestore
gsave
/o {
gsave
newpath
translate
0.8 setlinewidth
1 setlinejoin
0 setlinecap
0 0 m
0 -3.5 l

gsave
0.000 setgray
fill
grestore
stroke
grestore
} bind def
250.56 63.36 o
grestore
gsave
242.606875 48.766250 translate
0.000000 rotate
0.000000 0.000000 m /zero glyphshow
6.362305 0.000000 m /period glyphshow
9.541016 0.000000 m /four glyphshow
grestore
gsave
/o {
gsave
newpath
translate
0.8 setlinewidth
1 setlinejoin
0 setlinecap
0 0 m
0 -3.5 l

gsave
0.000 setgray
fill
grestore
stroke
grestore
} bind def
339.84 63.36 o
grestore
gsave
331.886875 48.766250 translate
0.000000 rotate
0.000000 0.000000 m /zero glyphshow
6.362305 0.000000 m /period glyphshow
9.541016 0.000000 m /six glyphshow
grestore
gsave
/o {
gsave
newpath
translate
0.8 setlinewidth
1 setlinejoin
0 setlinecap
0 0 m
0 -3.5 l

gsave
0.000 setgray
fill
grestore
stroke
grestore
} bind def
429.12 63.36 o
grestore
gsave
421.166875 48.766250 translate
0.000000 rotate
0.000000 0.000000 m /zero glyphshow
6.362305 0.000000 m /period glyphshow
9.541016 0.000000 m /eight glyphshow
grestore
gsave
/o {
gsave
newpath
translate
0.8 setlinewidth
1 setlinejoin
0 setlinecap
0 0 m
0 -3.5 l

gsave
0.000 setgray
fill
grestore
stroke
grestore
} bind def
518.4 63.36 o
grestore
gsave
510.446875 48.766250 translate
0.000000 rotate
0.000000 0.000000 m /one glyphshow
6.362305 0.000000 m /period glyphshow
9.541016 0.000000 m /zero glyphshow
grestore
/DejaVuSans findfont
20.000 scalefont
setfont
gsave
289.278125 27.485000 translate
0.000000 rotate
0.000000 0.000000 m /x glyphshow
grestore
gsave
/o {
gsave
newpath
translate
0.8 setlinewidth
1 setlinejoin
0 setlinecap
0 0 m
-3.5 0 l

gsave
0.000 setgray
fill
grestore
stroke
grestore
} bind def
72 63.36 o
grestore
/DejaVuSans findfont
10.000 scalefont
setfont
gsave
49.093750 59.563125 translate
0.000000 rotate
0.000000 0.000000 m /zero glyphshow
6.362305 0.000000 m /period glyphshow
9.541016 0.000000 m /zero glyphshow
grestore
gsave
/o {
gsave
newpath
translate
0.8 setlinewidth
1 setlinejoin
0 setlinecap
0 0 m
-3.5 0 l

gsave
0.000 setgray
fill
grestore
stroke
grestore
} bind def
72 152.064 o
grestore
gsave
49.093750 148.267125 translate
0.000000 rotate
0.000000 0.000000 m /zero glyphshow
6.362305 0.000000 m /period glyphshow
9.541016 0.000000 m /two glyphshow
grestore
gsave
/o {
gsave
newpath
translate
0.8 setlinewidth
1 setlinejoin
0 setlinecap
0 0 m
-3.5 0 l

gsave
0.000 setgray
fill
grestore
stroke
grestore
} bind def
72 240.768 o
grestore
gsave
49.093750 236.971125 translate
0.000000 rotate
0.000000 0.000000 m /zero glyphshow
6.362305 0.000000 m /period glyphshow
9.541016 0.000000 m /four glyphshow
grestore
gsave
/o {
gsave
newpath
translate
0.8 setlinewidth
1 setlinejoin
0 setlinecap
0 0 m
-3.5 0 l

gsave
0.000 setgray
fill
grestore
stroke
grestore
} bind def
72 329.472 o
grestore
gsave
49.093750 325.675125 translate
0.000000 rotate
0.000000 0.000000 m /zero glyphshow
6.362305 0.000000 m /period glyphshow
9.541016 0.000000 m /six glyphshow
grestore
gsave
/o {
gsave
newpath
translate
0.8 setlinewidth
1 setlinejoin
0 setlinecap
0 0 m
-3.5 0 l

gsave
0.000 setgray
fill
grestore
stroke
grestore
} bind def
72 418.176 o
grestore
gsave
49.093750 414.379125 translate
0.000000 rotate
0.000000 0.000000 m /zero glyphshow
6.362305 0.000000 m /period glyphshow
9.541016 0.000000 m /eight glyphshow
grestore
gsave
/o {
gsave
newpath
translate
0.8 setlinewidth
1 setlinejoin
0 setlinecap
0 0 m
-3.5 0 l

gsave
0.000 setgray
fill
grestore
stroke
grestore
} bind def
72 506.88 o
grestore
gsave
49.093750 503.083125 translate
0.000000 rotate
0.000000 0.000000 m /one glyphshow
6.362305 0.000000 m /period glyphshow
9.541016 0.000000 m /zero glyphshow
grestore
/DejaVuSans findfont
20.000 scalefont
setfont
gsave
40.937500 279.198125 translate
90.000000 rotate
0.000000 0.000000 m /y glyphshow
grestore
1.500 setlinewidth
2 setlinecap
1.000 0.000 0.000 setrgbcolor
gsave
446.4 443.5 72 63.36 clipbox
291.200095 184.606389 m
297.443249 184.632774 l
304.575183 184.897685 l
311.689052 185.406182 l
318.769455 186.151151 l
325.800989 187.125476 l
332.768255 188.32204 l
339.65585 189.733729 l
346.448372 191.353426 l
353.130422 193.174016 l
359.686596 195.188384 l
366.101495 197.389413 l
372.359716 199.769988 l
378.445858 202.322993 l
384.344519 205.041313 l
390.0403 207.917832 l
395.517797 210.945435 l
400.76161 214.117004 l
405.756337 217.425426 l
409.910287 220.426963 l
413.851422 223.523062 l
417.569423 226.708956 l
421.053974 229.979879 l
424.294755 233.331064 l
427.28145 236.757743 l
430.003741 240.25515 l
432.118867 243.305607 l
434.02566 246.401523 l
435.717621 249.539897 l
437.188254 252.717726 l
438.43106 255.932008 l
439.439542 259.179741 l
440.207203 262.457924 l
440.727545 265.763554 l
440.994071 269.09363 l
441.000398 272.445135 l
440.745341 275.814357 l
440.234928 279.196628 l
439.475717 282.587206 l
438.474267 285.981349 l
437.237137 289.374315 l
435.770885 292.761364 l
434.08207 296.137753 l
432.17725 299.498742 l
429.690705 303.394105 l
426.929496 307.254524 l
423.904037 311.072468 l
420.624745 314.84041 l
417.102033 318.550819 l
413.346317 322.196166 l
409.368011 325.768922 l
405.177531 329.261558 l
400.141966 333.145377 l
394.858424 336.903477 l
389.342452 340.524617 l
383.609597 343.99756 l
377.675405 347.311067 l
371.555422 350.453897 l
365.265196 353.414814 l
358.820272 356.182576 l
352.236196 358.745946 l
345.528517 361.093685 l
338.712779 363.214553 l
332.672588 364.875373 l
326.571983 366.346361 l
320.421378 367.619988 l
314.231189 368.688725 l
308.011831 369.545043 l
301.773718 370.181411 l
295.527264 370.590303 l
289.282886 370.764187 l
283.050748 370.698575 l
276.840209 370.398792 l
270.660462 369.872143 l
264.520704 369.125934 l
258.43013 368.167471 l
252.397935 367.004059 l
246.433315 365.643004 l
240.545464 364.091611 l
234.743577 362.357186 l
229.036851 360.447035 l
222.643196 358.0582 l
216.399568 355.460293 l
210.319691 352.664218 l
204.417293 349.680879 l
198.706099 346.521183 l
193.199835 343.196033 l
187.912227 339.716336 l
182.857 336.092997 l
178.04788 332.336919 l
174.052575 328.950039 l
170.2654 325.477185 l
166.695551 321.925665 l
163.352222 318.302784 l
160.244608 314.615847 l
157.381905 310.87216 l
154.773309 307.079029 l
152.428013 303.243758 l
150.355215 299.373655 l
148.802385 296.034236 l
147.462304 292.679194 l
146.34076 289.313128 l
145.443546 285.94064 l
144.776451 282.566329 l
144.345267 279.194797 l
144.155783 275.830644 l
144.213316 272.478411 l
144.516753 269.141835 l
145.060343 265.82407 l
145.838235 262.528261 l
146.844578 259.257548 l
148.073518 256.015076 l
149.519205 252.803987 l
151.175786 249.627423 l
153.037411 246.488528 l
155.46065 242.878285 l
158.145719 239.328581 l
161.083323 235.844407 l
164.264172 232.430754 l
167.678972 229.092612 l
171.318431 225.834971 l
175.173257 222.662822 l
179.234157 219.581156 l
184.115601 216.176449 l
189.240195 212.903892 l
194.594068 209.770934 l
200.16335 206.785024 l
205.93417 203.953612 l
211.892655 201.284147 l
218.024937 198.78408 l
224.317143 196.460859 l
230.755403 194.321934 l
237.325846 192.374755 l
244.014601 190.62677 l
250.807797 189.085431 l
257.691563 187.758185 l
264.652028 186.652483 l
271.675322 185.775774 l
278.747573 185.135508 l
285.854911 184.739134 l
291.200095 184.606389 l
291.200095 184.606389 l
stroke
grestore
0.000 0.000 1.000 setrgbcolor
gsave
446.4 443.5 72 63.36 clipbox
296.365732 200.880904 m
302.56169 200.629506 l
309.624089 200.581422 l
316.652885 200.780539 l
323.633829 201.218539 l
330.552667 201.8871 l
337.395149 202.777904 l
344.147021 203.882628 l
350.794034 205.192954 l
357.321934 206.700561 l
363.716471 208.39713 l
369.963391 210.274338 l
376.048444 212.323868 l
381.957378 214.537397 l
387.675941 216.906607 l
393.18988 219.423177 l
398.484946 222.078786 l
403.546884 224.865115 l
408.361445 227.773844 l
412.914375 230.796651 l
417.191424 233.925218 l
420.696329 236.742929 l
423.969552 239.629667 l
427.001547 242.579859 l
429.782766 245.587931 l
432.303661 248.648309 l
434.554684 251.755419 l
436.526289 254.903688 l
437.986604 257.630737 l
439.228604 260.380421 l
440.246277 263.149227 l
441.033612 265.933647 l
441.584594 268.730171 l
441.893212 271.535287 l
441.953453 274.345487 l
441.761594 277.15736 l
441.321993 279.967847 l
440.640789 282.773969 l
439.724123 285.572743 l
438.578135 288.361191 l
437.208966 291.136331 l
435.622755 293.895182 l
433.506052 297.089278 l
431.11204 300.252415 l
428.450469 303.379858 l
425.531089 306.466874 l
422.363652 309.508731 l
418.957908 312.500695 l
414.786333 315.852918 l
410.330789 319.126728 l
405.605832 322.31506 l
400.626016 325.410849 l
395.405896 328.407029 l
389.960026 331.296536 l
383.581705 334.410926 l
376.956813 337.371306 l
370.106075 340.167617 l
363.050214 342.789799 l
355.809953 345.227792 l
348.406016 347.471538 l
340.859127 349.510975 l
333.190008 351.336046 l
325.419383 352.936691 l
317.567975 354.302849 l
310.537882 355.312227 l
303.474889 356.121319 l
296.393552 356.72306 l
289.308423 357.110754 l
282.234044 357.284163 l
275.184941 357.24853 l
268.175642 357.009275 l
261.220675 356.571815 l
253.479368 355.849503 l
245.845894 354.890911 l
238.340939 353.703754 l
230.985187 352.295747 l
223.799323 350.674604 l
216.80403 348.848041 l
210.019993 346.823772 l
204.18381 344.864684 l
198.545417 342.760898 l
193.119341 340.517833 l
187.920108 338.140907 l
182.962246 335.635538 l
178.260283 333.007145 l
173.828746 330.261147 l
169.682163 327.402961 l
166.299074 324.814279 l
163.155007 322.147483 l
160.259694 319.406201 l
157.622868 316.594064 l
155.25426 313.714701 l
153.444883 311.195922 l
151.845843 308.632706 l
150.463269 306.027338 l
149.30329 303.382105 l
148.372036 300.699292 l
147.675633 297.981185 l
147.220212 295.230071 l
147.011901 292.448234 l
147.056631 289.637993 l
147.354722 286.802531 l
147.900249 283.946004 l
148.686953 281.072616 l
149.708578 278.186571 l
150.958868 275.292075 l
152.431567 272.393332 l
154.422467 269.011707 l
156.697639 265.636703 l
159.247147 262.274995 l
162.061056 258.933262 l
165.129431 255.61818 l
168.442337 252.336426 l
172.515196 248.635225 l
176.879635 244.996243 l
181.520824 241.429446 l
186.423932 237.944802 l
191.574131 234.552278 l
196.956588 231.261839 l
202.556474 228.083454 l
208.358959 225.027088 l
214.349212 222.10271 l
220.512403 219.320286 l
226.833702 216.689782 l
233.298277 214.221166 l
239.8913 211.924404 l
246.59794 209.809465 l
253.403366 207.886313 l
260.292749 206.164917 l
267.251257 204.655243 l
274.264061 203.367258 l
281.31633 202.310929 l
288.393234 201.496223 l
294.594075 200.989397 l
296.365732 200.880904 l
296.365732 200.880904 l
stroke
grestore
0.800 setlinewidth
0 setlinejoin
[] 0 setdash
0.000 setgray
gsave
72 63.36 m
72 506.88 l
stroke
grestore
gsave
518.4 63.36 m
518.4 506.88 l
stroke
grestore
gsave
72 63.36 m
518.4 63.36 l
stroke
grestore
gsave
72 506.88 m
518.4 506.88 l
stroke
grestore
1.000 setlinewidth
0 setlinecap
0.800 setgray
gsave
298.978125 432.16125 m
504.4 432.16125 l
507.066667 432.16125 508.4 433.494583 508.4 436.16125 c
508.4 492.88 l
508.4 495.546667 507.066667 496.88 504.4 496.88 c
298.978125 496.88 l
296.311458 496.88 294.978125 495.546667 294.978125 492.88 c
294.978125 436.16125 l
294.978125 433.494583 296.311458 432.16125 298.978125 432.16125 c
cl
gsave
1.000 setgray
fill
grestore
stroke
grestore
1.500 setlinewidth
1 setlinejoin
2 setlinecap
[] 0 setdash
1.000 0.000 0.000 setrgbcolor
gsave
302.978125 480.676875 m
342.978125 480.676875 l
stroke
grestore
0.000 setgray
gsave
358.978125 473.676875 translate
0.000000 rotate
0.000000 0.000000 m /T glyphshow
12.169922 0.000000 m /r glyphshow
20.392578 0.000000 m /u glyphshow
33.068359 0.000000 m /t glyphshow
40.910156 0.000000 m /h glyphshow
53.585938 0.000000 m /space glyphshow
59.943359 0.000000 m /S glyphshow
72.638672 0.000000 m /o glyphshow
84.875000 0.000000 m /l glyphshow
90.431641 0.000000 m /u glyphshow
103.107422 0.000000 m /t glyphshow
110.949219 0.000000 m /i glyphshow
116.505859 0.000000 m /o glyphshow
128.742188 0.000000 m /n glyphshow
grestore
0.000 0.000 1.000 setrgbcolor
gsave
302.978125 451.3175 m
342.978125 451.3175 l
stroke
grestore
0.000 setgray
gsave
358.978125 444.317500 translate
0.000000 rotate
0.000000 0.000000 m /P glyphshow
12.060547 0.000000 m /r glyphshow
20.283203 0.000000 m /e glyphshow
32.587891 0.000000 m /d glyphshow
45.283203 0.000000 m /i glyphshow
50.839844 0.000000 m /c glyphshow
61.835938 0.000000 m /t glyphshow
69.677734 0.000000 m /i glyphshow
75.234375 0.000000 m /o glyphshow
87.470703 0.000000 m /n glyphshow
grestore

end
showpage
